…
## Mammals Sleep
For this assignment, we are going to use built-in data on mammal sleep patterns.  


```r
msleep
```

```
## # A tibble: 83 x 11
##    name  genus vore  order conservation sleep_total sleep_rem sleep_cycle
##    <chr> <chr> <chr> <chr> <chr>              <dbl>     <dbl>       <dbl>
##  1 Chee… Acin… carni Carn… lc                  12.1      NA        NA    
##  2 Owl … Aotus omni  Prim… <NA>                17         1.8      NA    
##  3 Moun… Aplo… herbi Rode… nt                  14.4       2.4      NA    
##  4 Grea… Blar… omni  Sori… lc                  14.9       2.3       0.133
##  5 Cow   Bos   herbi Arti… domesticated         4         0.7       0.667
##  6 Thre… Brad… herbi Pilo… <NA>                14.4       2.2       0.767
##  7 Nort… Call… carni Carn… vu                   8.7       1.4       0.383
##  8 Vesp… Calo… <NA>  Rode… <NA>                 7        NA        NA    
##  9 Dog   Canis carni Carn… domesticated        10.1       2.9       0.333
## 10 Roe … Capr… herbi Arti… lc                   3        NA        NA    
## # … with 73 more rows, and 3 more variables: awake <dbl>, brainwt <dbl>,
## #   bodywt <dbl>
```
…
3. Make a new data frame focused on body weight, but be sure to indicate the common name and genus of each mammal. Sort the data in descending order by body weight.


```r
msleep %>% 
  select(name, order, bodywt) %>% 
  arrange(desc(bodywt))
```

```
## # A tibble: 83 x 3
##    name                 order          bodywt
##    <chr>                <chr>           <dbl>
##  1 African elephant     Proboscidea     6654 
##  2 Asian elephant       Proboscidea     2547 
##  3 Giraffe              Artiodactyla     900.
##  4 Pilot whale          Cetacea          800 
##  5 Cow                  Artiodactyla     600 
##  6 Horse                Perissodactyla   521 
##  7 Brazilian tapir      Perissodactyla   208.
##  8 Donkey               Perissodactyla   187 
##  9 Bottle-nosed dolphin Cetacea          173.
## 10 Tiger                Carnivora        163.
## # … with 73 more rows
```


4. We are interested in two groups; small and large mammals. Let's define small as less than or equal to 1kg body weight and large as greater than or equal to 200kg body weight. For our study, we are interested in body weight and sleep total Make two new data frames (large and small) based on these parameters. Sort the data in descending order by body weight.

# Small

```r
msleep %>% 
  select(name, order, bodywt) %>% 
  arrange(desc(bodywt)) %>% 
  filter(bodywt <= 1)
```

```
## # A tibble: 36 x 3
##    name                      order           bodywt
##    <chr>                     <chr>            <dbl>
##  1 African giant pouched rat Rodentia         1    
##  2 Arctic ground squirrel    Rodentia         0.92 
##  3 Tenrec                    Afrosoricida     0.9  
##  4 European hedgehog         Erinaceomorpha   0.77 
##  5 Squirrel monkey           Primates         0.743
##  6 Guinea pig                Rodentia         0.728
##  7 Desert hedgehog           Erinaceomorpha   0.55 
##  8 Owl monkey                Primates         0.48 
##  9 Chinchilla                Rodentia         0.42 
## 10 Thick-tailed opposum      Didelphimorphia  0.37 
## # … with 26 more rows
```
…
7. Make two new variables in the msleep data frame: 1. the proportion of rem sleep, and 2. body weight in grams.


```r
msleep %>% 
    mutate(rem_proportion = sleep_rem / sleep_total) %>%
    arrange(desc(rem_proportion))
```

```
## # A tibble: 83 x 12
##    name  genus vore  order conservation sleep_total sleep_rem sleep_cycle
##    <chr> <chr> <chr> <chr> <chr>              <dbl>     <dbl>       <dbl>
##  1 Euro… Erin… omni  Erin… lc                  10.1       3.5       0.283
##  2 Thic… Lutr… carni Dide… lc                  19.4       6.6      NA    
##  3 Gian… Prio… inse… Cing… en                  18.1       6.1      NA    
##  4 Tree… Tupa… omni  Scan… <NA>                 8.9       2.6       0.233
##  5 Dog   Canis carni Carn… domesticated        10.1       2.9       0.333
##  6 Nort… Dide… omni  Dide… lc                  18         4.9       0.333
##  7 Pig   Sus   omni  Arti… domesticated         9.1       2.4       0.5  
##  8 Dese… Para… <NA>  Erin… lc                  10.3       2.7      NA    
##  9 Dome… Felis carni Carn… domesticated        12.5       3.2       0.417
## 10 East… Scal… inse… Sori… lc                   8.4       2.1       0.167
## # … with 73 more rows, and 4 more variables: awake <dbl>, brainwt <dbl>,
## #   bodywt <dbl>, rem_proportion <dbl>
```

```r
msleep %>% 
    mutate(bodywtgrams = bodywt * 1000) %>%
    arrange(desc(bodywtgrams))
```

```
## # A tibble: 83 x 12
##    name  genus vore  order conservation sleep_total sleep_rem sleep_cycle
##    <chr> <chr> <chr> <chr> <chr>              <dbl>     <dbl>       <dbl>
##  1 Afri… Loxo… herbi Prob… vu                   3.3      NA        NA    
##  2 Asia… Elep… herbi Prob… en                   3.9      NA        NA    
##  3 Gira… Gira… herbi Arti… cd                   1.9       0.4      NA    
##  4 Pilo… Glob… carni Ceta… cd                   2.7       0.1      NA    
##  5 Cow   Bos   herbi Arti… domesticated         4         0.7       0.667
##  6 Horse Equus herbi Peri… domesticated         2.9       0.6       1    
##  7 Braz… Tapi… herbi Peri… vu                   4.4       1         0.9  
##  8 Donk… Equus herbi Peri… domesticated         3.1       0.4      NA    
##  9 Bott… Turs… carni Ceta… <NA>                 5.2      NA        NA    
## 10 Tiger Pant… carni Carn… en                  15.8      NA        NA    
## # … with 73 more rows, and 4 more variables: awake <dbl>, brainwt <dbl>,
## #   bodywt <dbl>, bodywtgrams <dbl>
```

8. What are the top five mammals with the greatest proportion of rem sleep? Include their body weights for comparison.

The European hedgehog, thick-tailed opposum, giant armadillo, tree shrew, and dog have the greatest proportion of REM sleep among mammals.


```r
msleep %>% 
  mutate(rem_proportion = sleep_rem / sleep_total) %>%
  arrange(desc(rem_proportion)) %>% 
  select(name, bodywt, rem_proportion)
```

```
## # A tibble: 83 x 3
##    name                   bodywt rem_proportion
##    <chr>                   <dbl>          <dbl>
##  1 European hedgehog       0.77           0.347
##  2 Thick-tailed opposum    0.37           0.340
##  3 Giant armadillo        60              0.337
##  4 Tree shrew              0.104          0.292
##  5 Dog                    14              0.287
##  6 North American Opossum  1.7            0.272
##  7 Pig                    86.2            0.264
##  8 Desert hedgehog         0.55           0.262
##  9 Domestic cat            3.3            0.256
## 10 Eastern american mole   0.075          0.25 
## # … with 73 more rows
```
…
