…
6. Which cities in California have the highest number of colleges?

```r
colleges %>% 
  group_by(CITY) %>% 
  summarize(total=n()) %>% 
  arrange(desc(total))
```

```
## # A tibble: 161 x 2
##    CITY          total
##    <chr>         <int>
##  1 Los Angeles      24
##  2 San Diego        18
##  3 San Francisco    15
##  4 Sacramento       10
##  5 Berkeley          9
##  6 Oakland           9
##  7 Claremont         7
##  8 Pasadena          6
##  9 Fresno            5
## 10 Irvine            5
## # … with 151 more rows
```


7. The column `COSTT4_A` is the annual cost of each institution. Which city has the highest cost?


```r
colleges %>% 
  group_by(CITY) %>% 
  summarize(mean_cost_yr=mean(COSTT4_A, na.rm=TRUE),
            total=n()) %>% 
  arrange(desc(mean_cost_yr))
```

```
## # A tibble: 161 x 3
##    CITY                mean_cost_yr total
##    <chr>                      <dbl> <int>
##  1 Claremont                  66498     7
##  2 Malibu                     66152     1
##  3 Valencia                   64686     1
##  4 Orange                     64501     3
##  5 Redlands                   61542     1
##  6 Moraga                     61095     1
##  7 Atherton                   56035     1
##  8 Thousand Oaks              54373     1
##  9 Rancho Palos Verdes        50758     1
## 10 La Verne                   50603     1
## # … with 151 more rows
```
…
