…
```
## # A tibble: 1,114,596 x 10
##    country commname Species..ISSCAA… spgroupname spcode sciname region
##    <chr>   <chr>               <dbl> <chr>       <chr>  <chr>    <dbl>
##  1 Albania Angelsh…               38 Sharks, ra… 10903… Squati…     37
##  2 Albania Atlanti…               36 Tunas, bon… 17501… Sarda …     37
##  3 Albania Barracu…               37 Miscellane… 17710… Sphyra…     37
##  4 Albania Blue an…               45 Shrimps, p… 22802… Ariste…     37
##  5 Albania Blue wh…               32 Cods, hake… 14804… Microm…     37
##  6 Albania Bluefish               37 Miscellane… 17020… Pomato…     37
##  7 Albania Bogue                  33 Miscellane… 17039… Boops …     37
##  8 Albania Caramot…               45 Shrimps, p… 22801… Penaeu…     37
##  9 Albania Catshar…               38 Sharks, ra… 10801… Scylio…     37
## 10 Albania Common …               57 Squids, cu… 32102… Sepia …     37
## # … with 1,114,586 more rows, and 3 more variables: unit <chr>,
## #   year <chr>, catch <chr>
```
…
```
## Warning in evalq(as.numeric(str_replace(catch, c(" F", "...", "-"),
## replacement = "")), : NAs introduced by coercion
```

```r
fisheries_tidy
```

```
## # A tibble: 1,114,596 x 10
##    country commname Species..ISSCAA… spgroupname spcode sciname region
##    <chr>   <chr>               <dbl> <chr>       <chr>  <chr>    <dbl>
##  1 Albania Angelsh…               38 Sharks, ra… 10903… Squati…     37
##  2 Albania Atlanti…               36 Tunas, bon… 17501… Sarda …     37
##  3 Albania Barracu…               37 Miscellane… 17710… Sphyra…     37
##  4 Albania Blue an…               45 Shrimps, p… 22802… Ariste…     37
##  5 Albania Blue wh…               32 Cods, hake… 14804… Microm…     37
##  6 Albania Bluefish               37 Miscellane… 17020… Pomato…     37
##  7 Albania Bogue                  33 Miscellane… 17039… Boops …     37
##  8 Albania Caramot…               45 Shrimps, p… 22801… Penaeu…     37
##  9 Albania Catshar…               38 Sharks, ra… 10801… Scylio…     37
## 10 Albania Common …               57 Squids, cu… 32102… Sepia …     37
## # … with 1,114,586 more rows, and 3 more variables: unit <chr>,
## #   year <dbl>, catch <dbl>
```
…
9. You are a fisheries scientist studying cephalopod catch during 2008-2012. Identify the top five consumers (by country) of cephalopods (don't worry about species for now). Restrict the data frame only to our variables of interest.


```r
fisheries_tidy <- fisheries_tidy %>% 
  select(country, commname, spgroupname, catch) %>% 
  filter(spgroupname == "Squids, cuttlefishes, octopuses") %>% 
  arrange(desc(catch))
fisheries_tidy
```

```
## # A tibble: 46,935 x 4
##    country commname              spgroupname                      catch
##    <chr>   <chr>                 <chr>                            <dbl>
##  1 Japan   Japanese flying squid Squids, cuttlefishes, octopuses 576900
##  2 Japan   Japanese flying squid Squids, cuttlefishes, octopuses 573800
##  3 Peru    Jumbo flying squid    Squids, cuttlefishes, octopuses 533414
##  4 Japan   Japanese flying squid Squids, cuttlefishes, octopuses 478000
##  5 Japan   Japanese flying squid Squids, cuttlefishes, octopuses 477000
##  6 Japan   Japanese flying squid Squids, cuttlefishes, octopuses 465200
##  7 China   Various squids nei    Squids, cuttlefishes, octopuses 462981
##  8 Japan   Japanese flying squid Squids, cuttlefishes, octopuses 460100
##  9 Japan   Japanese flying squid Squids, cuttlefishes, octopuses 455800
## 10 Japan   Japanese flying squid Squids, cuttlefishes, octopuses 444189
## # … with 46,925 more rows
```
The top five consumers of cephalopods are Japan, Peru, China, Argentina, and Chile.

10. Let's be more specific. Who consumes the most `Common cuttlefish`? Store this as a new object `cuttle`.

```r
cuttlefish <- fisheries_tidy %>% 
  select(country, commname, catch) %>% 
  filter(commname == "Common cuttlefish") %>% 
  arrange(desc(catch))
cuttlefish
```

```
## # A tibble: 1,323 x 3
##    country commname          catch
##    <chr>   <chr>             <dbl>
##  1 France  Common cuttlefish 13217
##  2 France  Common cuttlefish 12966
##  3 France  Common cuttlefish  8076
##  4 Tunisia Common cuttlefish  7995
##  5 Tunisia Common cuttlefish  7717
##  6 Greece  Common cuttlefish  7200
##  7 Tunisia Common cuttlefish  7188
##  8 Tunisia Common cuttlefish  6622
##  9 Tunisia Common cuttlefish  6479
## 10 Tunisia Common cuttlefish  6404
## # … with 1,313 more rows
```
…
