…
```r
lifehistories1 <- 
  lifehistories %>% 
  na_if(-999)
lifehistories1
```

```
## # A tibble: 1,440 x 13
##    order family Genus species   mass gestation newborn weaning `wean mass`
##    <chr> <chr>  <chr> <chr>    <dbl>     <dbl>   <dbl>   <dbl>       <dbl>
##  1 Arti… Antil… Anti… americ… 4.54e4      8.13   3246.    3           8900
##  2 Arti… Bovid… Addax nasoma… 1.82e5      9.39   5480     6.5           NA
##  3 Arti… Bovid… Aepy… melamp… 4.15e4      6.35   5093     5.63       15900
##  4 Arti… Bovid… Alce… busela… 1.50e5      7.9   10167.    6.5           NA
##  5 Arti… Bovid… Ammo… clarkei 2.85e4      6.8      NA    NA             NA
##  6 Arti… Bovid… Ammo… lervia  5.55e4      5.08   3810     4             NA
##  7 Arti… Bovid… Anti… marsup… 3.00e4      5.72   3910     4.04          NA
##  8 Arti… Bovid… Anti… cervic… 3.75e4      5.5    3846     2.13          NA
##  9 Arti… Bovid… Bison bison   4.98e5      8.93  20000    10.7       157500
## 10 Arti… Bovid… Bison bonasus 5.00e5      9.14  23000.    6.6           NA
## # … with 1,430 more rows, and 4 more variables: AFR <dbl>, `max.
## #   life` <dbl>, `litter size` <dbl>, `litters/year` <dbl>
```
…
```r
lifehistories %>% 
  group_by(species) %>% 
  summarize(gestation=mean(gestation,na.rm=TRUE),
            newborn_bodymass=mean(newborn,na.rm=TRUE))
```

```
## # A tibble: 1,191 x 3
##    species       gestation newborn_bodymass
##    <chr>             <dbl>            <dbl>
##  1 abbreviatus        0.7              3.45
##  2 aberti             1.43            12   
##  3 acouchy            3.3             76.8 
##  4 acutorostrata     10.2           -999   
##  5 acutus            10.5          24000   
##  6 adspersus       -999             -999   
##  7 adustus            2.17          -999   
##  8 aedium             4.5            106.  
##  9 aethiopicus     -497.             341.  
## 10 aethiops           5.62           338.  
## # … with 1,181 more rows
```
…
